[
  {
    "user": {
      "type": "player",
      "name": "NA04",
      "uniqueId": "daff8f19-adb9-3695-8d0a-b9205d8c3f82"
    },
    "time": 1641728081258,
    "type": "Heap dump summary",
    "data": {
      "type": "url",
      "value": "https://spark.lucko.me/fnlgkgMGit"
    }
  },
  {
    "user": {
      "type": "player",
      "name": "NA04",
      "uniqueId": "daff8f19-adb9-3695-8d0a-b9205d8c3f82"
    },
    "time": 1641727705013,
    "type": "Heap dump summary",
    "data": {
      "type": "url",
      "value": "https://spark.lucko.me/T1M5GGtca3"
    }
  }
]